{
    "tests": [
        {
            "question": "Стандарт ИСО 10303",
            "availableAnswers": [
                {
                    "id": 1,
                    "label": "Не содержит готовые протоколы для различных областей, но описывает методику создания, тестирования и аттестации новых протоколов"
                },
                {
                    "id": 2,
                    "label": "Не касается вопросов реализации БД, но предусматривает форму представления данных в виде электронного документа."
                },
                {
                    "id": 3,
                    "label": "Содержит ряд новых понятий и соответствующих им интегрированных ресурсов, связанных прежде всего с задачами ИЛП"
                }
            ],
            "correctAnswer": 2
        },
        {
            "question": "Отношения между изделиями описываются при помощи",
            "availableAnswers": [
                {
                    "id": 1,
                    "label": "Объекта PRODUCT_DEFINITION_RERELATIONSHIP"
                },
                {
                    "id": 2,
                    "label": "Объекта PRODUCT_DEFINITION_CONTEXT"
                },
                {
                    "id": 3,
                    "label": "Объекта PRODUCT_DEFINITION_FORMATION"
                }
            ],
            "correctAnswer": 1
        },
        {
            "question": "В каком разделе стандарта ИСО 10303 описываются требования к структуре текстового обменного файла и программный интерфейс доступа к данным",
            "availableAnswers": [
                {
                    "id": 1,
                    "label": "Методы описания"
                },
                {
                    "id": 2,
                    "label": "Протоколы применения"
                },
                {
                    "id": 3,
                    "label": "Методы реализации"
                }
            ],
            "correctAnswer": 3
        },
        {
            "question": "В отличии от ИСО 10303 в модели NPDM",
            "availableAnswers": [
                {
                    "id": 1,
                    "label": "Для представления неструктурированных наборов данных документов предлагается использовать объект ONFO_OBJECT аналогичного назначения"
                },
                {
                    "id": 2,
                    "label": "Любой набор информации об изделии может быть охарактеризован состоянием (статусом), являющимся результатом выполнения некоторого автоматизированного действия"
                },
                {
                    "id": 3,
                    "label": "Каждое изделие может быть классифицировано, причем одновременно в нескольких системах классификации"
                }
            ],
            "correctAnswer": 1
        },
        {
            "question": "В модели NPDM концепция изделия рассматривается:",
            "availableAnswers": [
                {
                    "id": 1,
                    "label": "В маркетинговом контексте"
                },
                {
                    "id": 2,
                    "label": "С точки зрения заказчика"
                },
                {
                    "id": 3,
                    "label": "В контексте одного или нескольких сценариев использования"
                }
            ],
            "correctAnswer": 3
        },
        {
            "question": "Стандартизованный универсальный язык разметки - это",
            "availableAnswers": [
                {
                    "id": 1,
                    "label": "SGML"
                },
                {
                    "id": 2,
                    "label": "XML"
                },
                {
                    "id": 3,
                    "label": "HTML"
                }
            ],
            "correctAnswer": 1
        },
        {
            "question": "Перечень модулей данных, составляющих публикациюв AECMA 1000D - это",
            "availableAnswers": [
                {
                    "id": 1,
                    "label": "LOEDM"
                },
                {
                    "id": 2,
                    "label": "CSDB"
                },
                {
                    "id": 3,
                    "label": "LOAP"
                }
            ],
            "correctAnswer": 1
        },
        {
            "question": "Плановый регламент",
            "availableAnswers": [
                {
                    "id": 1,
                    "label": "Содержит перечень работ со ссылками на соответствующие процедурно-технологические МД"
                },
                {
                    "id": 2,
                    "label": "Предназначен для описания правил проведения процедур технического обслуживания изделия или его составных частей"
                },
                {
                    "id": 3,
                    "label": "Включает в себя перечень работ, но условия выполнения работ задаются для каждой работы"
                }
            ],
            "correctAnswer": 1
        },
        {
            "question": "Средства форматирования данных для их последующей визуализации и восприятия человеком предусмотрены в технологии:",
            "availableAnswers": [
                {
                    "id": 1,
                    "label": "STEP"
                },
                {
                    "id": 2,
                    "label": "SGML"
                },
                {
                    "id": 3,
                    "label": "MANDATA"
                }
            ],
            "correctAnswer": 2
        }
    ]
}